%YAML 1.1
%TAG !u! tag:unity3d.com,2011:
--- !u!78 &1
TagManager:
  serializedVersion: 2
  tags:
  - proyectilRojo
  - proyectilAzul
  - piso
  - Oro
  - Enemigo
  - Vacio
  layers:
  - Default
  - TransparentFX
  - Ignore Raycast
  - Player
  - Water
  - UI
  - Piso
  - 
  - 
  - 
  - 
  - 
  - 
  - 
  - 
  - 
  - 
  - 
  - 
  - 
  - 
  - 
  - 
  - 
  - 
  - 
  - 
  - 
  - 
  - 
  - 
  - 
  m_SortingLayers:
  - name: Default
    uniqueID: 0
    locked: 0
